{
	"info": {
		"_postman_id": "550e9f0e-ba12-48d8-aa02-cc4ced49fc59",
		"name": "lumen",
		"schema": "https://schema.getpostman.com/json/collection/v2.1.0/collection.json",
		"_exporter_id": "19789610"
	},
	"item": [
		{
			"name": "Создание клиента",
			"request": {
				"method": "POST",
				"header": [],
				"url": {
					"raw": "localhost/customer?name=ИП Кантемиров&phone=89174122811",
					"host": [
						"localhost"
					],
					"path": [
						"customer"
					],
					"query": [
						{
							"key": "name",
							"value": "ИП Кантемиров"
						},
						{
							"key": "phone",
							"value": "89174122811"
						}
					]
				}
			},
			"response": []
		},
		{
			"name": "Обновление клиента",
			"request": {
				"method": "PUT",
				"header": [],
				"url": {
					"raw": "localhost/customer/1?name=ИП Карасев&phone=81111111111",
					"host": [
						"localhost"
					],
					"path": [
						"customer",
						"1"
					],
					"query": [
						{
							"key": "name",
							"value": "ИП Карасев"
						},
						{
							"key": "phone",
							"value": "81111111111"
						}
					]
				}
			},
			"response": []
		},
		{
			"name": "Удаление клиента",
			"request": {
				"method": "DELETE",
				"header": [],
				"url": {
					"raw": "localhost/customer/1",
					"host": [
						"localhost"
					],
					"path": [
						"customer",
						"1"
					]
				}
			},
			"response": []
		},
		{
			"name": "Просмотр клиентов",
			"request": {
				"method": "GET",
				"header": [],
				"url": {
					"raw": "localhost/customer",
					"host": [
						"localhost"
					],
					"path": [
						"customer"
					]
				}
			},
			"response": []
		},
		{
			"name": "Просмотр клиента (id)",
			"request": {
				"method": "GET",
				"header": [],
				"url": {
					"raw": "localhost/customer/1",
					"host": [
						"localhost"
					],
					"path": [
						"customer",
						"1"
					]
				}
			},
			"response": []
		}
	]
}